^D:\CODING\CHESS\CHESS GAME\CHESS GAME\X64\DEBUG\MAIN.OBJ
/OUT:"D:\CODING\CHESS\CHESS GAME\X64\DEBUG\CHESS GAME.EXE" /INCREMENTAL /ILK:"CHESS GAME\X64\DEBUG\CHESS GAME.ILK" /NOLOGO /LIBPATH:"D:\CODING\CHESS\CHESS GAME\\LIB" "SFML-SYSTEM-D.LIB" "SFML-WINDOW-D.LIB" "SFML-GRAPHICS-D.LIB" "SFML-AUDIO-D.LIB" KERNEL32.LIB USER32.LIB GDI32.LIB WINSPOOL.LIB COMDLG32.LIB ADVAPI32.LIB SHELL32.LIB OLE32.LIB OLEAUT32.LIB UUID.LIB ODBC32.LIB ODBCCP32.LIB /MANIFEST /MANIFESTUAC:"level='asInvoker' uiAccess='false'" /manifest:embed /DEBUG /PDB:"D:\CODING\CHESS\CHESS GAME\X64\DEBUG\CHESS GAME.PDB" /SUBSYSTEM:CONSOLE /TLBID:1 /DYNAMICBASE /NXCOMPAT /IMPLIB:"D:\CODING\CHESS\CHESS GAME\X64\DEBUG\CHESS GAME.LIB" /MACHINE:X64 "CHESS GAME\X64\DEBUG\MAIN.OBJ"
^D:\CODING\CHESS\CHESS GAME\CHESS GAME\X64\DEBUG\BISHOP.OBJ|D:\CODING\CHESS\CHESS GAME\CHESS GAME\X64\DEBUG\BOARD.OBJ|D:\CODING\CHESS\CHESS GAME\CHESS GAME\X64\DEBUG\DRAW.OBJ|D:\CODING\CHESS\CHESS GAME\CHESS GAME\X64\DEBUG\GAME.OBJ|D:\CODING\CHESS\CHESS GAME\CHESS GAME\X64\DEBUG\KING.OBJ|D:\CODING\CHESS\CHESS GAME\CHESS GAME\X64\DEBUG\KNIGHT.OBJ|D:\CODING\CHESS\CHESS GAME\CHESS GAME\X64\DEBUG\MAIN.OBJ|D:\CODING\CHESS\CHESS GAME\CHESS GAME\X64\DEBUG\MOUSECLICKHANDLER.OBJ|D:\CODING\CHESS\CHESS GAME\CHESS GAME\X64\DEBUG\PAWN.OBJ|D:\CODING\CHESS\CHESS GAME\CHESS GAME\X64\DEBUG\PIECE.OBJ|D:\CODING\CHESS\CHESS GAME\CHESS GAME\X64\DEBUG\PIECESCONTAINER.OBJ|D:\CODING\CHESS\CHESS GAME\CHESS GAME\X64\DEBUG\QUEEN.OBJ|D:\CODING\CHESS\CHESS GAME\CHESS GAME\X64\DEBUG\ROOK.OBJ|D:\CODING\CHESS\CHESS GAME\CHESS GAME\X64\DEBUG\SPRITEMANAGER.OBJ|D:\CODING\CHESS\CHESS GAME\CHESS GAME\X64\DEBUG\SQUARE.OBJ
/OUT:"D:\CODING\CHESS\CHESS GAME\X64\DEBUG\CHESS GAME.EXE" /INCREMENTAL /ILK:"CHESS GAME\X64\DEBUG\CHESS GAME.ILK" /NOLOGO /LIBPATH:"D:\CODING\CHESS\CHESS GAME\\LIB" "SFML-SYSTEM-D.LIB" "SFML-WINDOW-D.LIB" "SFML-GRAPHICS-D.LIB" "SFML-AUDIO-D.LIB" KERNEL32.LIB USER32.LIB GDI32.LIB WINSPOOL.LIB COMDLG32.LIB ADVAPI32.LIB SHELL32.LIB OLE32.LIB OLEAUT32.LIB UUID.LIB ODBC32.LIB ODBCCP32.LIB /MANIFEST /MANIFESTUAC:"level='asInvoker' uiAccess='false'" /manifest:embed /DEBUG /PDB:"D:\CODING\CHESS\CHESS GAME\X64\DEBUG\CHESS GAME.PDB" /SUBSYSTEM:CONSOLE /TLBID:1 /DYNAMICBASE /NXCOMPAT /IMPLIB:"D:\CODING\CHESS\CHESS GAME\X64\DEBUG\CHESS GAME.LIB" /MACHINE:X64 "CHESS GAME\X64\DEBUG\BISHOP.OBJ"
"CHESS GAME\X64\DEBUG\BOARD.OBJ"
"CHESS GAME\X64\DEBUG\DRAW.OBJ"
"CHESS GAME\X64\DEBUG\GAME.OBJ"
"CHESS GAME\X64\DEBUG\KING.OBJ"
"CHESS GAME\X64\DEBUG\KNIGHT.OBJ"
"CHESS GAME\X64\DEBUG\MAIN.OBJ"
"CHESS GAME\X64\DEBUG\MOUSECLICKHANDLER.OBJ"
"CHESS GAME\X64\DEBUG\PAWN.OBJ"
"CHESS GAME\X64\DEBUG\PIECE.OBJ"
"CHESS GAME\X64\DEBUG\PIECESCONTAINER.OBJ"
"CHESS GAME\X64\DEBUG\QUEEN.OBJ"
"CHESS GAME\X64\DEBUG\ROOK.OBJ"
"CHESS GAME\X64\DEBUG\SPRITEMANAGER.OBJ"
"CHESS GAME\X64\DEBUG\SQUARE.OBJ"
